// Jest Snapshot v1, https://goo.gl/fbAQLP

exports[`Skip links renders correctly 1`] = `
<div
  className="sc-gsTCUz eviLTN"
>
  <div
    className="sc-bdfBwQ eCnFdc"
  >
    <div
      className="sc-gKsewC gRaARf"
      id="skiplinks"
    >
      <a
        className="sc-hKgILt iHJkbF sc-iBPRYJ gtODCn"
        size="l"
      >
        <span
          className="sc-dlfnbm iKETYo"
        >
          Navigatie
        </span>
        <span
          className="sc-jSgupP jhNkff"
        />
      </a>
      <a
        className="sc-hKgILt iHJkbF sc-iBPRYJ gtODCn"
        size="l"
      >
        <span
          className="sc-dlfnbm iKETYo"
        >
          Hoofd inhoud
        </span>
        <span
          className="sc-jSgupP jhNkff"
        />
      </a>
      <a
        className="sc-hKgILt iHJkbF sc-iBPRYJ gtODCn"
        size="l"
      >
        <span
          className="sc-dlfnbm iKETYo"
        >
          Footer
        </span>
        <span
          className="sc-jSgupP jhNkff"
        />
      </a>
    </div>
  </div>
</div>
`;
